{"eventType":"Neuerfassung","comment":"Frontend"}
{"eventType":"Neuerfassung","comment":"55"}
{"eventType":"add new Timerecording","projectId":"3","employeeId":"2","recordingTypeId":"3","date":"2024-05-30","duration":"5","comment":"Frontend"}
{"eventType":"add new Timerecording","projectId":"1","employeeId":"4","recordingTypeId":"4","date":"2024-06-09","duration":"7","comment":"Fertig"}
{"eventType":"add new Timerecording","projectId":"4","employeeId":"3","recordingTypeId":"1","date":"2024-05-14","duration":"1","comment":"Zeug"}
{"eventType":"add new Timerecording","projectId":"2","employeeId":"2","recordingTypeId":"3","date":"2024-05-31","duration":"2","comment":"Alles läuft"}
{"eventType":"add new Timerecording","projectId":"3","employeeId":"3","recordingTypeId":"3","date":"2024-05-31","duration":"2","comment":"Test"}
{"0":"P","1":"r","2":"o","3":"j","4":"e","5":"c","6":"t","7":" ","8":"2","eventType":"Suchen"}
{"0":"P","1":"r","2":"o","3":"j","4":"e","5":"c","6":"t","7":" ","8":"3","eventType":"Suchen"}
{"0":"P","1":"r","2":"o","3":"j","4":"e","5":"c","6":"t","7":" ","8":"3","eventType":"Suchen"}
{"0":"P","1":"r","2":"o","3":"j","4":"e","5":"c","6":"t","7":" ","8":"2","eventType":"Suchen"}
{"0":"P","1":"r","2":"o","3":"j","4":"e","5":"c","6":"t","7":" ","8":"2","eventType":"Suchen"}
{"0":"P","1":"r","2":"o","3":"j","4":"e","5":"c","6":"t","7":" ","8":"3","eventType":"Suchen"}
{"0":"P","1":"r","2":"o","3":"j","4":"e","5":"c","6":"t","7":" ","8":"2","eventType":"Suchen"}
{"0":"P","1":"r","2":"o","3":"j","4":"e","5":"c","6":"t","7":" ","8":"2","eventType":"Suchen"}
{"0":"P","1":"r","2":"o","3":"j","4":"e","5":"c","6":"t","7":" ","8":"2","eventType":"Suchen"}
{"0":"P","1":"r","2":"o","3":"j","4":"e","5":"c","6":"t","7":" ","8":"2","eventType":"Suchen"}
{"0":"P","1":"r","2":"o","3":"j","4":"e","5":"c","6":"t","7":" ","8":"2","eventType":"Suchen"}
{"0":"P","1":"r","2":"o","3":"j","4":"e","5":"c","6":"t","7":" ","8":"2","eventType":"Suchen"}
{"0":"P","1":"r","2":"o","3":"j","4":"e","5":"c","6":"t","7":" ","8":"2","eventType":"Suchen"}
{"0":"P","1":"r","2":"o","3":"j","4":"e","5":"c","6":"t","7":" ","8":"2","eventType":"Suchen"}
{"0":"P","1":"r","2":"o","3":"j","4":"e","5":"c","6":"t","7":" ","8":"3","eventType":"Suchen"}
{"eventType":"Löschen","employeeFullName":"Martin Hager","projectName":"Project 3","recordingTypeName":"Testing","duration":"2.0","comment":"Test"}
{"0":"P","1":"r","2":"o","3":"j","4":"e","5":"c","6":"t","7":" ","8":"3","eventType":"Suchen"}
{"eventType":"Suchen","projectName":"Project 1"}
{"eventType":"Suchen","projectName":"Project 3"}
{"eventType":"Suchen","projectName":"Project 3"}
{"eventType":"Suchen","projectName":"Project 3"}
{"eventType":"Suchen","projectName":"Project 3"}
{"eventType":"Suchen","projectName":"Project 3"}
{"eventType":"Suchen","projectName":"Project 3"}
{"eventType":"Suchen","projectName":"Project 3"}
{"eventType":"Suchen","projectName":"Project 3"}
{"eventType":"Suchen","projectName":"Project 3"}
{"eventType":"Suchen","projectName":"Project 3"}
{"eventType":"Suchen","projectName":"Project 3"}
{"eventType":"Suchen","projectName":"Project 3"}
{"eventType":"Suchen","projectName":"Project 3"}
{"eventType":"Suchen","projectName":"Project 3"}
{"eventType":"Suchen","projectName":"Project 3"}
{"eventType":"Suchen","projectName":"Project 3"}
{"eventType":"Suchen","projectName":"Project 3"}
{"eventType":"Suchen","projectName":"Project 3"}
{"eventType":"Suchen","projectName":"Project 3"}
{"eventType":"Suchen","projectName":"Project 3"}
{"eventType":"Suchen","projectName":"Project 3"}
{"eventType":"Suchen","projectName":"Project 3"}
{"eventType":"Suchen","projectName":"Project 3"}
{"eventType":"Suchen","projectName":"Project 3"}
{"eventType":"Suchen","projectName":"Project 3"}
{"eventType":"Suchen","projectName":"Project 3"}
{"eventType":"Suchen","projectName":"Project 3"}
{"eventType":"Suchen","projectName":"Project 3"}
{"eventType":"Suchen","projectName":"Project 2"}
{"eventType":"Suchen","projectName":"Project 1"}
